{
  "title": "Custom apiDoc browser title",
  "url": "http://localhost:5095",
  "name": "example",
  "version": "1.0.0",
  "description": "apiDoc basic example",
  "sampleUrl": false,
  "defaultVersion": "0.0.0",
  "apidoc": "0.3.0",
  "generator": {
    "name": "apidoc",
    "time": "2021-08-30T12:47:57.224Z",
    "url": "https://apidocjs.com",
    "version": "0.29.0"
  }
}
